mtllib block-u.mtl
g Layer 1
v -0.051273 -305.288361 0.025699
v -0.068222 -305.329254 0.025699
v -0.081886 -305.257690 0.025699
v -0.122761 -305.274719 0.025699
v -0.082649 -305.098083 0.025699
v -0.123280 -305.138885 0.025699
v -0.150036 -305.138855 0.025699
v -0.109203 -305.098053 0.025699
v -0.150036 -305.057068 0.025699
v -0.013676 -305.057556 0.025699
v -0.054401 -305.098145 0.025699
v -0.013676 -305.138855 0.025699
v -0.081722 -305.098083 0.025699
v -0.040947 -305.138855 0.025699
v -0.040947 -305.247437 0.025699
v 0.072857 -305.279297 0.025699
v 0.040871 -305.247437 0.025699
v 0.081078 -305.097961 0.025699
v 0.040359 -305.138885 0.025699
v 0.013084 -305.138855 0.025699
v 0.053997 -305.097961 0.025699
v 0.013084 -305.057068 0.025699
v 0.149963 -305.057068 0.025699
v 0.109055 -305.097961 0.025699
v 0.149963 -305.138855 0.025699
v 0.122177 -305.138855 0.025699
v 0.081551 -305.258301 0.025699
v 0.122177 -305.275238 0.025699
v 0.050797 -305.288361 0.025699
v 0.067631 -305.329254 0.025699
v -0.072899 -305.279388 0.025699
v 0.081268 -305.097961 0.025699
v 0.081177 -305.098053 0.025699
v -0.082188 -305.098541 0.025699
v -0.068222 -305.329254 0.025699
v -0.122761 -305.274719 0.025699
v -0.068222 -305.329254 -0.025708
v -0.122761 -305.274719 -0.025708
v -0.122761 -305.274719 0.025699
v -0.123280 -305.138885 0.025699
v -0.122761 -305.274719 -0.025708
v -0.123280 -305.138885 -0.025708
v -0.123280 -305.138885 0.025699
v -0.150036 -305.138855 0.025699
v -0.123280 -305.138885 -0.025708
v -0.150036 -305.138855 -0.025708
v -0.150036 -305.138855 0.025699
v -0.150036 -305.057068 0.025699
v -0.150036 -305.138855 -0.025708
v -0.150036 -305.057068 -0.025708
v -0.150036 -305.057068 0.025699
v -0.013676 -305.057556 0.025699
v -0.150036 -305.057068 -0.025708
v -0.013676 -305.057556 -0.025708
v -0.013676 -305.057556 0.025699
v -0.013676 -305.138855 0.025699
v -0.013676 -305.057556 -0.025708
v -0.013676 -305.138855 -0.025708
v -0.013676 -305.138855 0.025699
v -0.040947 -305.138855 0.025699
v -0.013676 -305.138855 -0.025708
v -0.040947 -305.138855 -0.025708
v -0.040947 -305.138855 0.025699
v -0.040947 -305.247437 0.025699
v -0.040947 -305.138855 -0.025708
v -0.040947 -305.247437 -0.025708
v -0.040947 -305.247437 0.025699
v 0.040871 -305.247437 0.025699
v -0.040947 -305.247437 -0.025708
v 0.040871 -305.247437 -0.025708
v 0.040871 -305.247437 0.025699
v 0.040359 -305.138885 0.025699
v 0.040871 -305.247437 -0.025708
v 0.040359 -305.138885 -0.025708
v 0.040359 -305.138885 0.025699
v 0.013084 -305.138855 0.025699
v 0.040359 -305.138885 -0.025708
v 0.013084 -305.138855 -0.025708
v 0.013084 -305.138855 0.025699
v 0.013084 -305.057068 0.025699
v 0.013084 -305.138855 -0.025708
v 0.013084 -305.057068 -0.025708
v 0.013084 -305.057068 0.025699
v 0.149963 -305.057068 0.025699
v 0.013084 -305.057068 -0.025708
v 0.149963 -305.057068 -0.025708
v 0.149963 -305.057068 0.025699
v 0.149963 -305.138855 0.025699
v 0.149963 -305.057068 -0.025708
v 0.149963 -305.138855 -0.025708
v 0.149963 -305.138855 0.025699
v 0.122177 -305.138855 0.025699
v 0.149963 -305.138855 -0.025708
v 0.122177 -305.138855 -0.025708
v 0.122177 -305.138855 0.025699
v 0.122177 -305.275238 0.025699
v 0.122177 -305.138855 -0.025708
v 0.122177 -305.275238 -0.025708
v 0.122177 -305.275238 0.025699
v 0.067631 -305.329254 0.025699
v 0.122177 -305.275238 -0.025708
v 0.067631 -305.329254 -0.025708
v 0.067631 -305.329254 0.025699
v -0.068222 -305.329254 0.025699
v 0.067631 -305.329254 -0.025708
v -0.068222 -305.329254 -0.025708
v -0.051273 -305.288361 -0.025708
v -0.068222 -305.329254 -0.025708
v -0.081886 -305.257690 -0.025708
v -0.122761 -305.274719 -0.025708
v -0.082649 -305.098083 -0.025708
v -0.123280 -305.138885 -0.025708
v -0.150036 -305.138855 -0.025708
v -0.109203 -305.098053 -0.025708
v -0.150036 -305.057068 -0.025708
v -0.013676 -305.057556 -0.025708
v -0.054401 -305.098145 -0.025708
v -0.013676 -305.138855 -0.025708
v -0.081722 -305.098083 -0.025708
v -0.040947 -305.138855 -0.025708
v -0.040947 -305.247437 -0.025708
v 0.072857 -305.279297 -0.025708
v 0.040871 -305.247437 -0.025708
v 0.081078 -305.097961 -0.025708
v 0.040359 -305.138885 -0.025708
v 0.013084 -305.138855 -0.025708
v 0.053997 -305.097961 -0.025708
v 0.013084 -305.057068 -0.025708
v 0.149963 -305.057068 -0.025708
v 0.109055 -305.097961 -0.025708
v 0.149963 -305.138855 -0.025708
v 0.122177 -305.138855 -0.025708
v 0.081551 -305.258301 -0.025708
v 0.122177 -305.275238 -0.025708
v 0.050797 -305.288361 -0.025708
v 0.067631 -305.329254 -0.025708
v -0.072899 -305.279388 -0.025708
v 0.081268 -305.097961 -0.025708
v 0.081177 -305.098053 -0.025708
v -0.082188 -305.098541 -0.025708
vt 0.329211 0.150284
vt 0.272727 0.000000
vt 0.227163 0.262910
vt 0.090910 0.200377
vt 0.224623 0.849246
vt 0.089195 0.699435
vt 0.000000 0.699440
vt 0.136107 0.849433
vt 0.000000 1.000000
vt 0.454540 0.998110
vt 0.318778 0.849053
vt 0.454540 0.699440
vt 0.227707 0.849246
vt 0.363636 0.699440
vt 0.363631 0.300565
vt 0.742976 0.183617
vt 0.636364 0.300560
vt 0.770380 0.849716
vt 0.634654 0.699435
vt 0.543744 0.699440
vt 0.680109 0.849717
vt 0.543744 1.000000
vt 1.000000 1.000000
vt 0.863639 0.849721
vt 1.000000 0.699440
vt 0.907379 0.699440
vt 0.771957 0.260723
vt 0.907375 0.198487
vt 0.669452 0.150279
vt 0.725558 0.000000
vt 0.257125 0.183191
vt 0.771020 0.849720
vt 0.770698 0.849366
vt 0.226162 0.847550
vt 1.000000 1.000000
vt 0.950868 1.000000
vt 1.000000 0.000000
vt 0.950868 0.000000
vt 0.950868 1.000000
vt 0.864341 1.000000
vt 0.950868 0.000000
vt 0.864341 0.000000
vt 0.864341 1.000000
vt 0.847298 1.000000
vt 0.864341 0.000000
vt 0.847298 0.000000
vt 0.847298 1.000000
vt 0.795187 1.000000
vt 0.847298 0.000000
vt 0.795187 0.000000
vt 0.795187 1.000000
vt 0.708334 1.000000
vt 0.795187 0.000000
vt 0.708334 0.000000
vt 0.708334 1.000000
vt 0.656550 1.000000
vt 0.708334 0.000000
vt 0.656550 0.000000
vt 0.656550 1.000000
vt 0.639181 1.000000
vt 0.656550 0.000000
vt 0.639181 0.000000
vt 0.639181 1.000000
vt 0.570024 1.000000
vt 0.639181 0.000000
vt 0.570024 0.000000
vt 0.570024 1.000000
vt 0.517910 1.000000
vt 0.570024 0.000000
vt 0.517910 0.000000
vt 0.517910 1.000000
vt 0.448753 1.000000
vt 0.517910 0.000000
vt 0.448753 0.000000
vt 0.448753 1.000000
vt 0.431382 1.000000
vt 0.448753 0.000000
vt 0.431382 0.000000
vt 0.431382 1.000000
vt 0.379271 1.000000
vt 0.431382 0.000000
vt 0.379271 0.000000
vt 0.379271 1.000000
vt 0.292090 1.000000
vt 0.379271 0.000000
vt 0.292090 0.000000
vt 0.292090 1.000000
vt 0.239979 1.000000
vt 0.292090 0.000000
vt 0.239979 0.000000
vt 0.239979 1.000000
vt 0.222281 1.000000
vt 0.239979 0.000000
vt 0.222281 0.000000
vt 0.222281 1.000000
vt 0.135426 1.000000
vt 0.222281 0.000000
vt 0.135426 0.000000
vt 0.135426 1.000000
vt 0.086526 1.000000
vt 0.135426 0.000000
vt 0.086526 0.000000
vt 0.086526 1.000000
vt -0.000000 1.000000
vt 0.086526 0.000000
vt -0.000000 0.000000
vt 0.329211 0.150284
vt 0.272727 0.000000
vt 0.227163 0.262910
vt 0.090910 0.200377
vt 0.224623 0.849246
vt 0.089195 0.699435
vt 0.000000 0.699440
vt 0.136107 0.849433
vt 0.000000 1.000000
vt 0.454540 0.998110
vt 0.318778 0.849053
vt 0.454540 0.699440
vt 0.227707 0.849246
vt 0.363636 0.699440
vt 0.363631 0.300565
vt 0.742976 0.183617
vt 0.636364 0.300560
vt 0.770380 0.849716
vt 0.634654 0.699435
vt 0.543744 0.699440
vt 0.680109 0.849717
vt 0.543744 1.000000
vt 1.000000 1.000000
vt 0.863639 0.849721
vt 1.000000 0.699440
vt 0.907379 0.699440
vt 0.771957 0.260723
vt 0.907375 0.198487
vt 0.669452 0.150279
vt 0.725558 0.000000
vt 0.257125 0.183191
vt 0.771020 0.849720
vt 0.770698 0.849366
vt 0.226162 0.847550
vn 0.000000 0.000000 0.154375
vn 0.000000 0.000000 0.154375
vn 0.000000 0.000000 0.154375
vn 0.000000 0.000000 0.154375
vn 0.000000 0.000000 0.154375
vn 0.000000 0.000000 0.154375
vn 0.000000 0.000000 0.154375
vn 0.000000 0.000000 0.154375
vn 0.000000 0.000000 0.154375
vn 0.000000 0.000000 0.154375
vn 0.000000 0.000000 0.154375
vn 0.000000 0.000000 0.154375
vn 0.000000 0.000000 0.154114
vn 0.000000 0.000000 0.154375
vn 0.000000 0.000000 0.154375
vn 0.000000 0.000000 0.154375
vn 0.000000 0.000000 0.154375
vn 0.000000 0.000000 0.154375
vn 0.000000 0.000000 0.154375
vn 0.000000 0.000000 0.154375
vn 0.000000 0.000000 0.154375
vn 0.000000 0.000000 0.154375
vn 0.000000 0.000000 0.154375
vn 0.000000 0.000000 0.154375
vn 0.000000 0.000000 0.154375
vn 0.000000 0.000000 0.154114
vn 0.000000 0.000000 0.154375
vn 0.000000 0.000000 0.154375
vn 0.000000 0.000000 0.154375
vn 0.000000 0.000000 0.154375
vn 0.000000 0.000000 0.154375
vn 0.000000 0.000000 0.154114
vn 0.000000 0.000000 0.154375
vn 0.000000 0.000000 0.154375
vn -0.108975 -0.108975 0.000000
vn -0.108975 -0.108975 0.000000
vn -0.108975 -0.108975 0.000000
vn -0.108975 -0.108975 0.000000
vn -0.154374 -0.000585 0.000000
vn -0.154374 -0.000585 0.000000
vn -0.154374 -0.000585 0.000000
vn -0.154374 -0.000585 0.000000
vn -0.000008 -0.154375 0.000000
vn -0.000008 -0.154375 0.000000
vn -0.000008 -0.154375 0.000000
vn -0.000008 -0.154375 0.000000
vn -0.154376 0.000000 0.000000
vn -0.154376 0.000000 0.000000
vn -0.154376 0.000000 0.000000
vn -0.154376 0.000000 0.000000
vn 0.000582 0.154374 0.000000
vn 0.000582 0.154374 0.000000
vn 0.000582 0.154374 0.000000
vn 0.000582 0.154374 0.000000
vn 0.154376 0.000000 0.000000
vn 0.154376 0.000000 0.000000
vn 0.154376 0.000000 0.000000
vn 0.154376 0.000000 0.000000
vn 0.000000 -0.154375 0.000000
vn 0.000000 -0.154375 0.000000
vn 0.000000 -0.154375 0.000000
vn 0.000000 -0.154375 0.000000
vn 0.154376 -0.000002 0.000000
vn 0.154376 -0.000002 0.000000
vn 0.154376 -0.000002 0.000000
vn 0.154376 -0.000002 0.000000
vn 0.000003 0.154375 0.000000
vn 0.000003 0.154375 0.000000
vn 0.000003 0.154375 0.000000
vn 0.000003 0.154375 0.000000
vn -0.154374 -0.000730 0.000000
vn -0.154374 -0.000730 0.000000
vn -0.154374 -0.000730 0.000000
vn -0.154374 -0.000730 0.000000
vn -0.000008 -0.154375 0.000000
vn -0.000008 -0.154375 0.000000
vn -0.000008 -0.154375 0.000000
vn -0.000008 -0.154375 0.000000
vn -0.154376 0.000000 0.000000
vn -0.154376 0.000000 0.000000
vn -0.154376 0.000000 0.000000
vn -0.154376 0.000000 0.000000
vn 0.000000 0.154375 0.000000
vn 0.000000 0.154375 0.000000
vn 0.000000 0.154375 0.000000
vn 0.000000 0.154375 0.000000
vn 0.154376 0.000000 0.000000
vn 0.154376 0.000000 0.000000
vn 0.154376 0.000000 0.000000
vn 0.154376 0.000000 0.000000
vn 0.000000 -0.154375 0.000000
vn 0.000000 -0.154375 0.000000
vn 0.000000 -0.154375 0.000000
vn 0.000000 -0.154375 0.000000
vn 0.154376 -0.000002 0.000000
vn 0.154376 -0.000002 0.000000
vn 0.154376 -0.000002 0.000000
vn 0.154376 -0.000002 0.000000
vn 0.108458 -0.109490 0.000000
vn 0.108458 -0.109490 0.000000
vn 0.108458 -0.109490 0.000000
vn 0.108458 -0.109490 0.000000
vn 0.000000 -0.154375 0.000000
vn 0.000000 -0.154375 0.000000
vn 0.000000 -0.154375 0.000000
vn 0.000000 -0.154375 0.000000
vn 0.000000 0.000000 -0.154375
vn 0.000000 0.000000 -0.154375
vn 0.000000 0.000000 -0.154375
vn 0.000000 0.000000 -0.154375
vn 0.000000 0.000000 -0.154375
vn 0.000000 0.000000 -0.154375
vn 0.000000 0.000000 -0.154375
vn 0.000000 0.000000 -0.154375
vn 0.000000 0.000000 -0.154375
vn 0.000000 0.000000 -0.154375
vn 0.000000 0.000000 -0.154375
vn 0.000000 0.000000 -0.154375
vn 0.000000 0.000000 -0.154114
vn 0.000000 0.000000 -0.154375
vn 0.000000 0.000000 -0.154375
vn 0.000000 0.000000 -0.154375
vn 0.000000 0.000000 -0.154375
vn 0.000000 0.000000 -0.154375
vn 0.000000 0.000000 -0.154375
vn 0.000000 0.000000 -0.154375
vn 0.000000 0.000000 -0.154375
vn 0.000000 0.000000 -0.154375
vn 0.000000 0.000000 -0.154375
vn 0.000000 0.000000 -0.154375
vn 0.000000 0.000000 -0.154375
vn 0.000000 0.000000 -0.154114
vn 0.000000 0.000000 -0.154375
vn 0.000000 0.000000 -0.154375
vn 0.000000 0.000000 -0.154375
vn 0.000000 0.000000 -0.154375
vn 0.000000 0.000000 -0.154375
vn 0.000000 0.000000 -0.154114
vn 0.000000 0.000000 -0.154375
vn 0.000000 0.000000 -0.154375
usemtl Layer 1 Front Inflation Material
f 3/3/3 4/4/4 31/31/31
f 5/5/5 6/6/6 34/34/34
f 7/7/7 6/6/6 8/8/8
f 9/9/9 7/7/7 8/8/8
f 34/34/34 13/13/13 5/5/5
f 12/12/12 10/10/10 11/11/11
f 13/13/13 14/14/14 11/11/11
f 31/31/31 15/15/15 3/3/3
f 16/16/16 17/17/17 29/29/29
f 18/18/18 19/19/19 33/33/33
f 20/20/20 19/19/19 21/21/21
f 22/22/22 20/20/20 21/21/21
f 24/24/24 23/23/23 32/32/32
f 25/25/25 23/23/23 24/24/24
f 32/32/32 26/26/26 24/24/24
f 28/28/28 26/26/26 27/27/27
f 29/29/29 30/30/30 16/16/16
f 2/2/2 30/30/30 1/1/1
f 4/4/4 2/2/2 31/31/31
f 1/1/1 31/31/31 2/2/2
f 34/34/34 6/6/6 3/3/3
f 4/4/4 3/3/3 6/6/6
f 5/5/5 8/8/8 6/6/6
f 5/5/5 13/13/13 9/9/9
f 8/8/8 5/5/5 9/9/9
f 9/9/9 13/13/13 10/10/10
f 11/11/11 10/10/10 13/13/13
f 12/12/12 11/11/11 14/14/14
f 15/15/15 14/14/14 3/3/3
f 3/3/3 14/14/14 34/34/34
f 13/13/13 34/34/34 14/14/14
f 17/17/17 15/15/15 29/29/29
f 29/29/29 15/15/15 1/1/1
f 31/31/31 1/1/1 15/15/15
f 33/33/33 19/19/19 27/27/27
f 19/19/19 17/17/17 27/27/27
f 16/16/16 27/27/27 17/17/17
f 18/18/18 21/21/21 19/19/19
f 23/23/23 22/22/22 32/32/32
f 32/32/32 22/22/22 18/18/18
f 33/33/33 32/32/32 18/18/18
f 21/21/21 18/18/18 22/22/22
f 25/25/25 24/24/24 26/26/26
f 27/27/27 26/26/26 33/33/33
f 32/32/32 33/33/33 26/26/26
f 30/30/30 28/28/28 16/16/16
f 27/27/27 16/16/16 28/28/28
f 29/29/29 1/1/1 30/30/30
usemtl Layer 1 Front Bevel Material
f 1/1/1 1/1/1 1/1/1
usemtl Layer 1 Extrusion Material
f 37/37/37 35/35/35 36/36/36
f 37/37/37 36/36/36 38/38/38
f 41/41/41 39/39/39 40/40/40
f 41/41/41 40/40/40 42/42/42
f 45/45/45 43/43/43 44/44/44
f 45/45/45 44/44/44 46/46/46
f 49/49/49 47/47/47 48/48/48
f 49/49/49 48/48/48 50/50/50
f 53/53/53 51/51/51 52/52/52
f 53/53/53 52/52/52 54/54/54
f 57/57/57 55/55/55 56/56/56
f 57/57/57 56/56/56 58/58/58
f 61/61/61 59/59/59 60/60/60
f 61/61/61 60/60/60 62/62/62
f 65/65/65 63/63/63 64/64/64
f 65/65/65 64/64/64 66/66/66
f 69/69/69 67/67/67 68/68/68
f 69/69/69 68/68/68 70/70/70
f 73/73/73 71/71/71 72/72/72
f 73/73/73 72/72/72 74/74/74
f 77/77/77 75/75/75 76/76/76
f 77/77/77 76/76/76 78/78/78
f 81/81/81 79/79/79 80/80/80
f 81/81/81 80/80/80 82/82/82
f 85/85/85 83/83/83 84/84/84
f 85/85/85 84/84/84 86/86/86
f 89/89/89 87/87/87 88/88/88
f 89/89/89 88/88/88 90/90/90
f 93/93/93 91/91/91 92/92/92
f 93/93/93 92/92/92 94/94/94
f 97/97/97 95/95/95 96/96/96
f 97/97/97 96/96/96 98/98/98
f 101/101/101 99/99/99 100/100/100
f 101/101/101 100/100/100 102/102/102
f 105/105/105 103/103/103 104/104/104
f 105/105/105 104/104/104 106/106/106
usemtl Layer 1 Back Bevel Material
f 1/1/1 1/1/1 1/1/1
usemtl Layer 1 Back Inflation Material
f 110/110/110 109/109/109 137/137/137
f 112/112/112 111/111/111 140/140/140
f 112/112/112 113/113/113 114/114/114
f 113/113/113 115/115/115 114/114/114
f 119/119/119 140/140/140 111/111/111
f 116/116/116 118/118/118 117/117/117
f 120/120/120 119/119/119 117/117/117
f 121/121/121 137/137/137 109/109/109
f 123/123/123 122/122/122 135/135/135
f 125/125/125 124/124/124 139/139/139
f 125/125/125 126/126/126 127/127/127
f 126/126/126 128/128/128 127/127/127
f 129/129/129 130/130/130 138/138/138
f 129/129/129 131/131/131 130/130/130
f 132/132/132 138/138/138 130/130/130
f 132/132/132 134/134/134 133/133/133
f 136/136/136 135/135/135 122/122/122
f 136/136/136 108/108/108 107/107/107
f 108/108/108 110/110/110 137/137/137
f 137/137/137 107/107/107 108/108/108
f 112/112/112 140/140/140 109/109/109
f 109/109/109 110/110/110 112/112/112
f 114/114/114 111/111/111 112/112/112
f 119/119/119 111/111/111 115/115/115
f 111/111/111 114/114/114 115/115/115
f 119/119/119 115/115/115 116/116/116
f 116/116/116 117/117/117 119/119/119
f 117/117/117 118/118/118 120/120/120
f 120/120/120 121/121/121 109/109/109
f 120/120/120 109/109/109 140/140/140
f 140/140/140 119/119/119 120/120/120
f 121/121/121 123/123/123 135/135/135
f 121/121/121 135/135/135 107/107/107
f 107/107/107 137/137/137 121/121/121
f 125/125/125 139/139/139 133/133/133
f 123/123/123 125/125/125 133/133/133
f 133/133/133 122/122/122 123/123/123
f 127/127/127 124/124/124 125/125/125
f 128/128/128 129/129/129 138/138/138
f 128/128/128 138/138/138 124/124/124
f 138/138/138 139/139/139 124/124/124
f 124/124/124 127/127/127 128/128/128
f 130/130/130 131/131/131 132/132/132
f 132/132/132 133/133/133 139/139/139
f 139/139/139 138/138/138 132/132/132
f 134/134/134 136/136/136 122/122/122
f 122/122/122 133/133/133 134/134/134
f 107/107/107 135/135/135 136/136/136
